Categories:Multimedia,Connectivity
License:GPL-3.0-or-later
Web Site:https://gitlab.com/gateship-one/malp/wikis/home
Source Code:https://gitlab.com/gateship-one/malp
Issue Tracker:https://gitlab.com/gateship-one/malp/issues
Changelog:https://gitlab.com/gateship-one/malp/blob/HEAD/CHANGELOG.md

Auto Name:M.A.L.P.

Repo Type:git
Repo:https://gitlab.com/gateship-one/malp.git

Build:1.1.0,9
    commit=release-9
    subdir=app
    gradle=yes

Build:1.1.1,10
    commit=release-10
    subdir=app
    gradle=yes

Build:1.1.2,11
    commit=release-11
    subdir=app
    gradle=yes

Build:1.1.3,12
    commit=release-12
    subdir=app
    gradle=yes

Build:1.1.4,13
    commit=release-13
    subdir=app
    gradle=yes

Build:1.1.5,14
    commit=release-14
    subdir=app
    gradle=yes

Build:1.1.6,15
    commit=release-15
    subdir=app
    gradle=yes

Build:1.1.7,16
    commit=release-16
    subdir=app
    gradle=yes

Build:1.1.8,17
    commit=release-17
    subdir=app
    gradle=yes

Build:1.1.9,18
    commit=release-18
    subdir=app
    gradle=yes

Build:1.1.10,19
    commit=release-19
    subdir=app
    gradle=yes

Build:1.1.11,20
    commit=release-20
    subdir=app
    gradle=yes

Build:1.1.12,21
    commit=release-21
    subdir=app
    gradle=yes

Build:1.1.13,22
    commit=release-22
    subdir=app
    gradle=yes

Build:1.1.14,23
    commit=release-23
    subdir=app
    gradle=yes

Build:1.1.15,24
    commit=release-24
    subdir=app
    gradle=yes

Build:1.1.16,25
    commit=release-25
    subdir=app
    gradle=yes

Build:1.1.17,26
    commit=release-26
    subdir=app
    gradle=yes

Build:1.2.0,27
    commit=release-27
    subdir=app
    gradle=yes

Build:1.2.1,28
    commit=release-28
    subdir=app
    gradle=yes

Build:1.2.2,29
    commit=release-29
    subdir=app
    gradle=yes

Auto Update Mode:Version release-%c
Update Check Mode:Tags
Current Version:1.2.2
Current Version Code:29
